…
## 2. Create a new variable based on other variables in your data (only if it makes sense)

Reason for Selection: My objective is to ascertain the age of each tree,
providing a clearer insight into its growth pattern. Understanding the
correlation between the tree’s age and its diameter or height will be
helpful for further analysis.

``` r
vancouver_trees <- vancouver_trees %>%
  mutate(age = as.numeric(difftime(Sys.Date(), date_planted, unit = "weeks") / 52.25))
vancouver_trees
```

    ## # A tibble: 146,611 × 21
    ##    tree_id civic_number std_street    genus_name species_name cultivar_name  
    ##      <dbl>        <dbl> <chr>         <chr>      <chr>        <chr>          
    ##  1  149556          494 W 58TH AV     ULMUS      AMERICANA    BRANDON        
    ##  2  149563          450 W 58TH AV     ZELKOVA    SERRATA      <NA>           
    ##  3  149579         4994 WINDSOR ST    STYRAX     JAPONICA     <NA>           
    ##  4  149590          858 E 39TH AV     FRAXINUS   AMERICANA    AUTUMN APPLAUSE
    ##  5  149604         5032 WINDSOR ST    ACER       CAMPESTRE    <NA>           
    ##  6  149616          585 W 61ST AV     PYRUS      CALLERYANA   CHANTICLEER    
    ##  7  149617         4909 SHERBROOKE ST ACER       PLATANOIDES  COLUMNARE      
    ##  8  149618         4925 SHERBROOKE ST ACER       PLATANOIDES  COLUMNARE      
    ##  9  149619         4969 SHERBROOKE ST ACER       PLATANOIDES  COLUMNARE      
    ## 10  149625          720 E 39TH AV     FRAXINUS   AMERICANA    AUTUMN APPLAUSE
    ## # ℹ 146,601 more rows
    ## # ℹ 15 more variables: common_name <chr>, assigned <chr>, root_barrier <chr>,
    ## #   plant_area <chr>, on_street_block <dbl>, on_street <chr>,
    ## #   neighbourhood_name <chr>, street_side_name <chr>, height_range_id <dbl>,
    ## #   diameter <dbl>, curb <chr>, date_planted <date>, longitude <dbl>,
    ## #   latitude <dbl>, age <dbl>
…
``` r
vancouver_trees_subset <- vancouver_trees %>%
  select(genus_name, species_name, common_name, on_street_block, neighbourhood_name)

vancouver_trees_species_count_neighbourhood <- vancouver_trees_subset %>% 
  group_by(neighbourhood_name, species_name) %>% 
  mutate(total_count_per_species = n())

vancouver_trees_species_count_neighbourhood
```

    ## # A tibble: 146,611 × 6
    ## # Groups:   neighbourhood_name, species_name [3,056]
    ##    genus_name species_name common_name        on_street_block neighbourhood_name
    ##    <chr>      <chr>        <chr>                        <dbl> <chr>             
    ##  1 ULMUS      AMERICANA    BRANDON ELM                    400 MARPOLE           
    ##  2 ZELKOVA    SERRATA      JAPANESE ZELKOVA               400 MARPOLE           
    ##  3 STYRAX     JAPONICA     JAPANESE SNOWBELL             4900 KENSINGTON-CEDAR …
    ##  4 FRAXINUS   AMERICANA    AUTUMN APPLAUSE A…             800 KENSINGTON-CEDAR …
    ##  5 ACER       CAMPESTRE    HEDGE MAPLE                   5000 KENSINGTON-CEDAR …
    ##  6 PYRUS      CALLERYANA   CHANTICLEER PEAR               500 MARPOLE           
    ##  7 ACER       PLATANOIDES  COLUMNAR NORWAY M…            4900 KENSINGTON-CEDAR …
    ##  8 ACER       PLATANOIDES  COLUMNAR NORWAY M…            4900 KENSINGTON-CEDAR …
    ##  9 ACER       PLATANOIDES  COLUMNAR NORWAY M…            4900 KENSINGTON-CEDAR …
    ## 10 FRAXINUS   AMERICANA    AUTUMN APPLAUSE A…             700 KENSINGTON-CEDAR …
    ## # ℹ 146,601 more rows
    ## # ℹ 1 more variable: total_count_per_species <int>
…
