…
``` r
vancouver_trees_age <- vancouver_trees %>%
  mutate(year_plant = as.numeric(format(date_planted, "%Y")), tree_age = 2023 - year_plant)
vancouver_trees_age
```

    ## # A tibble: 146,611 × 22
    ##    tree_id civic_number std_street    genus_name species_name cultivar_name  
    ##      <dbl>        <dbl> <chr>         <chr>      <chr>        <chr>          
    ##  1  149556          494 W 58TH AV     ULMUS      AMERICANA    BRANDON        
    ##  2  149563          450 W 58TH AV     ZELKOVA    SERRATA      <NA>           
    ##  3  149579         4994 WINDSOR ST    STYRAX     JAPONICA     <NA>           
    ##  4  149590          858 E 39TH AV     FRAXINUS   AMERICANA    AUTUMN APPLAUSE
    ##  5  149604         5032 WINDSOR ST    ACER       CAMPESTRE    <NA>           
    ##  6  149616          585 W 61ST AV     PYRUS      CALLERYANA   CHANTICLEER    
    ##  7  149617         4909 SHERBROOKE ST ACER       PLATANOIDES  COLUMNARE      
    ##  8  149618         4925 SHERBROOKE ST ACER       PLATANOIDES  COLUMNARE      
    ##  9  149619         4969 SHERBROOKE ST ACER       PLATANOIDES  COLUMNARE      
    ## 10  149625          720 E 39TH AV     FRAXINUS   AMERICANA    AUTUMN APPLAUSE
    ## # ℹ 146,601 more rows
    ## # ℹ 16 more variables: common_name <chr>, assigned <chr>, root_barrier <chr>,
    ## #   plant_area <chr>, on_street_block <dbl>, on_street <chr>,
    ## #   neighbourhood_name <chr>, street_side_name <chr>, height_range_id <dbl>,
    ## #   diameter <dbl>, curb <chr>, date_planted <date>, longitude <dbl>,
    ## #   latitude <dbl>, year_plant <dbl>, tree_age <dbl>
…
``` r
# Group tree for each neighborhood of each tree species
tree_species_per_neighborhoods <- vancouver_trees %>% group_by(neighbourhood_name, species_name)
# Check the number of trees for each tree species in every neighborhood
tree_species_per_neighborhoods_prop <-tree_species_per_neighborhoods %>% summarise(total_trees = n()) %>% mutate(prop = total_trees/sum(total_trees))
```

    ## `summarise()` has grouped output by 'neighbourhood_name'. You can override
    ## using the `.groups` argument.

``` r
tree_species_per_neighborhoods_prop
```

    ## # A tibble: 3,056 × 4
    ## # Groups:   neighbourhood_name [22]
    ##    neighbourhood_name species_name   total_trees     prop
    ##    <chr>              <chr>                <int>    <dbl>
    ##  1 ARBUTUS-RIDGE      ABIES                    2 0.000387
    ##  2 ARBUTUS-RIDGE      ACERIFOLIA   X         103 0.0199  
    ##  3 ARBUTUS-RIDGE      ACUTISSIMA               5 0.000967
    ##  4 ARBUTUS-RIDGE      ALNIFOLIA               16 0.00310 
    ##  5 ARBUTUS-RIDGE      AMERICANA              225 0.0435  
    ##  6 ARBUTUS-RIDGE      AQUIFOLIUM               3 0.000580
    ##  7 ARBUTUS-RIDGE      ARIA                    19 0.00368 
    ##  8 ARBUTUS-RIDGE      ARNOLDIANA X             4 0.000774
    ##  9 ARBUTUS-RIDGE      AUCUPARIA               16 0.00310 
    ## 10 ARBUTUS-RIDGE      AVIUM                   15 0.00290 
    ## # ℹ 3,046 more rows

``` r
# Check the number of species in every neighborhood
total_tree_species_per_neighborhoods <-  vancouver_trees %>% group_by(neighbourhood_name) %>% 
    summarize(total_species = n_distinct(species_name)) %>% 
    mutate(prop = total_species/total_species_count)
total_tree_species_per_neighborhoods
```

    ## # A tibble: 22 × 3
    ##    neighbourhood_name       total_species  prop
    ##    <chr>                            <int> <dbl>
    ##  1 ARBUTUS-RIDGE                      121 0.428
    ##  2 DOWNTOWN                            79 0.279
    ##  3 DUNBAR-SOUTHLANDS                  161 0.569
    ##  4 FAIRVIEW                           119 0.420
    ##  5 GRANDVIEW-WOODLAND                 146 0.516
    ##  6 HASTINGS-SUNRISE                   176 0.622
    ##  7 KENSINGTON-CEDAR COTTAGE           159 0.562
    ##  8 KERRISDALE                         138 0.488
    ##  9 KILLARNEY                          122 0.431
    ## 10 KITSILANO                          171 0.604
    ## # ℹ 12 more rows
``` r
# Group tree for each street of each tree species
tree_species_per_streets <- vancouver_trees %>% group_by(std_street, species_name)
# Check the number of tree for each tree species in every street
tree_species_per_street_prop <-tree_species_per_streets %>% summarise(total_trees = n()) %>% mutate(prop = total_trees/sum(total_trees))
```

    ## `summarise()` has grouped output by 'std_street'. You can override using the
    ## `.groups` argument.

``` r
tree_species_per_street_prop
```

    ## # A tibble: 18,154 × 4
    ## # Groups:   std_street [805]
    ##    std_street species_name total_trees   prop
    ##    <chr>      <chr>              <int>  <dbl>
    ##  1 ABBOTT ST  ACUTISSIMA             1 0.0159
    ##  2 ABBOTT ST  BILOBA                 2 0.0317
    ##  3 ABBOTT ST  CAMPESTRE             11 0.175 
    ##  4 ABBOTT ST  KOUSA                  7 0.111 
    ##  5 ABBOTT ST  PALUSTRIS              4 0.0635
    ##  6 ABBOTT ST  PLATANOIDES           25 0.397 
    ##  7 ABBOTT ST  SACCHARINUM            1 0.0159
    ##  8 ABBOTT ST  STYRACIFLUA           10 0.159 
    ##  9 ABBOTT ST  TRUNCATUM              1 0.0159
    ## 10 ABBOTT ST  TULIPIFERA             1 0.0159
    ## # ℹ 18,144 more rows

``` r
# Check the number of species in every street
total_tree_species_per_streets <-  vancouver_trees %>% group_by(std_street) %>% 
    summarize(total_species = n_distinct(species_name)) %>% 
    mutate(prop = total_species/total_species_count)
total_tree_species_per_streets
```

    ## # A tibble: 805 × 3
    ##    std_street   total_species    prop
    ##    <chr>                <int>   <dbl>
    ##  1 ABBOTT ST               10 0.0353 
    ##  2 ABERDEEN ST             12 0.0424 
    ##  3 ADANAC ST               50 0.177  
    ##  4 ADERA ST                42 0.148  
    ##  5 AISNE ST                 2 0.00707
    ##  6 ALAMEIN AV               5 0.0177 
    ##  7 ALBERNI ST              20 0.0707 
    ##  8 ALBERTA ST              44 0.155  
    ##  9 ALDER ST                 8 0.0283 
    ## 10 ALEXANDER ST            22 0.0777 
    ## # ℹ 795 more rows
…
    ## `summarise()` has grouped output by 'neighbourhood_name'. You can override
    ## using the `.groups` argument.

``` r
predominant_species_of_each_neighbourhood
```

    ## # A tibble: 22 × 3
    ## # Groups:   neighbourhood_name [22]
    ##    neighbourhood_name       species_name count
    ##    <chr>                    <chr>        <int>
    ##  1 ARBUTUS-RIDGE            CERASIFERA     895
    ##  2 DOWNTOWN                 RUBRUM        1019
    ##  3 DUNBAR-SOUTHLANDS        PLATANOIDES   1165
    ##  4 FAIRVIEW                 RUBRUM         567
    ##  5 GRANDVIEW-WOODLAND       SERRULATA      583
    ##  6 HASTINGS-SUNRISE         CERASIFERA     972
    ##  7 KENSINGTON-CEDAR COTTAGE SERRULATA     1002
    ##  8 KERRISDALE               PLATANOIDES   1067
    ##  9 KILLARNEY                EUCHLORA   X   676
    ## 10 KITSILANO                PLATANOIDES   1188
    ## # ℹ 12 more rows
…
    ## `summarise()` has grouped output by 'std_street'. You can override using the
    ## `.groups` argument.

``` r
predominant_species_of_each_street
```

    ## # A tibble: 805 × 3
    ## # Groups:   std_street [805]
    ##    std_street   species_name   count
    ##    <chr>        <chr>          <int>
    ##  1 ABBOTT ST    PLATANOIDES       25
    ##  2 ABERDEEN ST  FLORIBUNDA        19
    ##  3 ADANAC ST    PSEUDOPLATANUS    39
    ##  4 ADERA ST     PLATANOIDES      119
    ##  5 AISNE ST     ZUMI               4
    ##  6 ALAMEIN AV   CERASIFERA        18
    ##  7 ALBERNI ST   EUCHLORA   X      52
    ##  8 ALBERTA ST   HIPPOCASTANUM     43
    ##  9 ALDER ST     PSEUDOPLATANUS     7
    ## 10 ALEXANDER ST RUBRUM            32
    ## # ℹ 795 more rows
…
``` r
#####################Summarizing task: Task 3  ############################
# Remove rows where Year_Column is NA
vancouver_trees_age_clean <- vancouver_trees_age %>% filter(!is.na(year_plant))

# Group by Year_Column to get the count of trees planted each year
tree_planting_per_year <- vancouver_trees_age_clean %>%
  group_by(year_plant) %>%
  summarise(num_trees_planted = n())
tree_planting_per_year
```

    ## # A tibble: 31 × 2
    ##    year_plant num_trees_planted
    ##         <dbl>             <int>
    ##  1       1989               300
    ##  2       1990              1145
    ##  3       1991               579
    ##  4       1992              1759
    ##  5       1993              2128
    ##  6       1994              1879
    ##  7       1995              2912
    ##  8       1996              3079
    ##  9       1997              2778
    ## 10       1998              3581
    ## # ℹ 21 more rows

``` r
tree_planting_with_street_side_per_year <- vancouver_trees_age_clean %>%
  group_by(year_plant, street_side_name) %>%
  summarise(num_trees_planted = n())
```

    ## `summarise()` has grouped output by 'year_plant'. You can override using the
    ## `.groups` argument.

``` r
tree_planting_with_street_side_per_year
```

    ## # A tibble: 99 × 3
    ## # Groups:   year_plant [31]
    ##    year_plant street_side_name num_trees_planted
    ##         <dbl> <chr>                        <int>
    ##  1       1989 EVEN                           168
    ##  2       1989 ODD                            132
    ##  3       1990 EVEN                           581
    ##  4       1990 MED                              3
    ##  5       1990 ODD                            561
    ##  6       1991 EVEN                           292
    ##  7       1991 ODD                            287
    ##  8       1992 EVEN                           844
    ##  9       1992 MED                              1
    ## 10       1992 ODD                            914
    ## # ℹ 89 more rows

``` r
summary_stats <- tree_planting_with_street_side_per_year %>%
  summarise(
    range = max(num_trees_planted) - min(num_trees_planted),
    mean = mean(num_trees_planted),
    median = median(num_trees_planted),
    sd = sd(num_trees_planted)
  )
summary_stats
```

    ## # A tibble: 31 × 5
    ##    year_plant range  mean median     sd
    ##         <dbl> <int> <dbl>  <dbl>  <dbl>
    ##  1       1989    36  150    150   25.5 
    ##  2       1990   578  382.   561  328.  
    ##  3       1991     5  290.   290.   3.54
    ##  4       1992   913  586.   844  508.  
    ##  5       1993  1069  709.  1047  609.  
    ##  6       1994   931  626.   890  518.  
    ##  7       1995  1443  971.  1441  829.  
    ##  8       1996  1545 1026.  1486  869.  
    ##  9       1997  1238  926   1334  713.  
    ## 10       1998  1459 1194.  1612  815.  
    ## # ℹ 21 more rows
…
Be sure to explain your reasoning for this task. Show us the “before”
and “after”.

<!--------------------------- Start your work below --------------------------->

``` r
# Convert the tidy data into untidy data by combining the species_name and cultivar_name
tidy_to_untidy <- vancouver_trees %>% pivot_longer(cols = c("species_name", "cultivar_name"), 
               names_to  = "types_of_taxonomy", 
               values_to = "name")
print(tidy_to_untidy)
```

    ## # A tibble: 293,222 × 20
    ##    tree_id civic_number std_street genus_name common_name  assigned root_barrier
    ##      <dbl>        <dbl> <chr>      <chr>      <chr>        <chr>    <chr>       
    ##  1  149556          494 W 58TH AV  ULMUS      BRANDON ELM  N        N           
    ##  2  149556          494 W 58TH AV  ULMUS      BRANDON ELM  N        N           
    ##  3  149563          450 W 58TH AV  ZELKOVA    JAPANESE ZE… N        N           
    ##  4  149563          450 W 58TH AV  ZELKOVA    JAPANESE ZE… N        N           
    ##  5  149579         4994 WINDSOR ST STYRAX     JAPANESE SN… N        N           
    ##  6  149579         4994 WINDSOR ST STYRAX     JAPANESE SN… N        N           
    ##  7  149590          858 E 39TH AV  FRAXINUS   AUTUMN APPL… Y        N           
    ##  8  149590          858 E 39TH AV  FRAXINUS   AUTUMN APPL… Y        N           
    ##  9  149604         5032 WINDSOR ST ACER       HEDGE MAPLE  N        N           
    ## 10  149604         5032 WINDSOR ST ACER       HEDGE MAPLE  N        N           
    ## # ℹ 293,212 more rows
    ## # ℹ 13 more variables: plant_area <chr>, on_street_block <dbl>,
    ## #   on_street <chr>, neighbourhood_name <chr>, street_side_name <chr>,
    ## #   height_range_id <dbl>, diameter <dbl>, curb <chr>, date_planted <date>,
    ## #   longitude <dbl>, latitude <dbl>, types_of_taxonomy <chr>, name <chr>

``` r
# Convert the untidy data into tidy data
untidy_to_tidy_original <-tidy_to_untidy %>% 
  pivot_wider(names_from  = "types_of_taxonomy", values_from = "name")
print(untidy_to_tidy_original)
```

    ## # A tibble: 146,611 × 20
    ##    tree_id civic_number std_street  genus_name common_name assigned root_barrier
    ##      <dbl>        <dbl> <chr>       <chr>      <chr>       <chr>    <chr>       
    ##  1  149556          494 W 58TH AV   ULMUS      BRANDON ELM N        N           
    ##  2  149563          450 W 58TH AV   ZELKOVA    JAPANESE Z… N        N           
    ##  3  149579         4994 WINDSOR ST  STYRAX     JAPANESE S… N        N           
    ##  4  149590          858 E 39TH AV   FRAXINUS   AUTUMN APP… Y        N           
    ##  5  149604         5032 WINDSOR ST  ACER       HEDGE MAPLE N        N           
    ##  6  149616          585 W 61ST AV   PYRUS      CHANTICLEE… N        N           
    ##  7  149617         4909 SHERBROOKE… ACER       COLUMNAR N… N        N           
    ##  8  149618         4925 SHERBROOKE… ACER       COLUMNAR N… N        N           
    ##  9  149619         4969 SHERBROOKE… ACER       COLUMNAR N… N        N           
    ## 10  149625          720 E 39TH AV   FRAXINUS   AUTUMN APP… N        N           
    ## # ℹ 146,601 more rows
    ## # ℹ 13 more variables: plant_area <chr>, on_street_block <dbl>,
    ## #   on_street <chr>, neighbourhood_name <chr>, street_side_name <chr>,
    ## #   height_range_id <dbl>, diameter <dbl>, curb <chr>, date_planted <date>,
    ## #   longitude <dbl>, latitude <dbl>, species_name <chr>, cultivar_name <chr>

``` r
#Part B: Untidy Data to Tidy Data 
tidy_to_drop_na_tidy_data <- vancouver_trees %>% drop_na()
print(tidy_to_drop_na_tidy_data)
```

    ## # A tibble: 41,859 × 20
    ##    tree_id civic_number std_street    genus_name species_name cultivar_name  
    ##      <dbl>        <dbl> <chr>         <chr>      <chr>        <chr>          
    ##  1  149556          494 W 58TH AV     ULMUS      AMERICANA    BRANDON        
    ##  2  149590          858 E 39TH AV     FRAXINUS   AMERICANA    AUTUMN APPLAUSE
    ##  3  149617         4909 SHERBROOKE ST ACER       PLATANOIDES  COLUMNARE      
    ##  4  149618         4925 SHERBROOKE ST ACER       PLATANOIDES  COLUMNARE      
    ##  5  149619         4969 SHERBROOKE ST ACER       PLATANOIDES  COLUMNARE      
    ##  6  149625          720 E 39TH AV     FRAXINUS   AMERICANA    AUTUMN APPLAUSE
    ##  7  149640         6968 SELKIRK ST    ACER       PLATANOIDES  COLUMNARE      
    ##  8  149673         5241 WINDSOR ST    FRAXINUS   OXYCARPA     RAYWOOD        
    ##  9  149683         7011 SELKIRK ST    ACER       PLATANOIDES  COLUMNARE      
    ## 10  149684         1223 W 54TH AV     ACER       PLATANOIDES  COLUMNARE      
    ## # ℹ 41,849 more rows
    ## # ℹ 14 more variables: common_name <chr>, assigned <chr>, root_barrier <chr>,
    ## #   plant_area <chr>, on_street_block <dbl>, on_street <chr>,
    ## #   neighbourhood_name <chr>, street_side_name <chr>, height_range_id <dbl>,
    ## #   diameter <dbl>, curb <chr>, date_planted <date>, longitude <dbl>,
    ## #   latitude <dbl>
…
``` r
# Group by Year_Column and neighborhood to get the count of trees planted each year for each neighborhood
tree_planting_per_year_per_neighbourhood <- vancouver_trees_age_clean %>%
  group_by(year_plant, neighbourhood_name) %>%
  summarise(tree_count = n())
```

    ## `summarise()` has grouped output by 'year_plant'. You can override using the
    ## `.groups` argument.

``` r
tree_planting_per_year_per_neighbourhood
```

    ## # A tibble: 671 × 3
    ## # Groups:   year_plant [31]
    ##    year_plant neighbourhood_name       tree_count
    ##         <dbl> <chr>                         <int>
    ##  1       1989 ARBUTUS-RIDGE                    41
    ##  2       1989 DOWNTOWN                          6
    ##  3       1989 DUNBAR-SOUTHLANDS                65
    ##  4       1989 GRANDVIEW-WOODLAND               26
    ##  5       1989 KENSINGTON-CEDAR COTTAGE          7
    ##  6       1989 KERRISDALE                        2
    ##  7       1989 KILLARNEY                        30
    ##  8       1989 MARPOLE                           6
    ##  9       1989 MOUNT PLEASANT                    4
    ## 10       1989 RENFREW-COLLINGWOOD              45
    ## # ℹ 661 more rows
…
summary_stats
```

    ## # A tibble: 22 × 9
    ##    neighbourhood_name       tree_count_max tree_count_min tree_count_range
    ##    <chr>                             <int>          <int>            <int>
    ##  1 ARBUTUS-RIDGE                       305             16              289
    ##  2 DOWNTOWN                            250              1              249
    ##  3 DUNBAR-SOUTHLANDS                   272             24              248
    ##  4 FAIRVIEW                            128              1              127
    ##  5 GRANDVIEW-WOODLAND                  288             13              275
    ##  6 HASTINGS-SUNRISE                    415             56              359
    ##  7 KENSINGTON-CEDAR COTTAGE            561              7              554
    ##  8 KERRISDALE                          261              2              259
    ##  9 KILLARNEY                           240             13              227
    ## 10 KITSILANO                           197              9              188
    ## # ℹ 12 more rows
    ## # ℹ 5 more variables: max_tree_year_plant <dbl>, min_tree__year_plant <dbl>,
    ## #   tree_count_mean <dbl>, tree_count_std_dev <dbl>, tree_count_median <dbl>
…
``` r
# stat for year_plant
tree_growth_age_stats <- tree_growth_stats %>% group_by(tree_age) %>%
  summarise(
    mean_diameter = mean(diameter, na.rm = TRUE),
    mean_height = mean(height_range_id, na.rm = TRUE)
  )
tree_growth_age_stats
```

    ## # A tibble: 32 × 3
    ##    tree_age mean_diameter mean_height
    ##       <dbl>         <dbl>       <dbl>
    ##  1        4          3.07        1.02
    ##  2        5          3.07        1.02
    ##  3        6          3.05        1.05
    ##  4        7          3.11        1.03
    ##  5        8          3.21        1.06
    ##  6        9          3.19        1.05
    ##  7       10          3.25        1.05
    ##  8       11          3.46        1.06
    ##  9       12          3.48        1.12
    ## 10       13          3.63        1.10
    ## # ℹ 22 more rows
…
``` r
# Melt the data for easier plotting to street name
tree_stats_growth_ages_long <- pivot_longer(tree_growth_age_stats, c(mean_diameter, mean_height), 
                                names_to = "measure", values_to = "value")
tree_stats_growth_ages_long
```

    ## # A tibble: 64 × 3
    ##    tree_age measure       value
    ##       <dbl> <chr>         <dbl>
    ##  1        4 mean_diameter  3.07
    ##  2        4 mean_height    1.02
    ##  3        5 mean_diameter  3.07
    ##  4        5 mean_height    1.02
    ##  5        6 mean_diameter  3.05
    ##  6        6 mean_height    1.05
    ##  7        7 mean_diameter  3.11
    ##  8        7 mean_height    1.03
    ##  9        8 mean_diameter  3.21
    ## 10        8 mean_height    1.06
    ## # ℹ 54 more rows
…
